asgiref==3.6.0
contourpy==1.0.7
cycler==0.11.0
distlib==0.3.6
Django==4.1.7
filelock==3.9.0
fonttools==4.38.0
greenlet==2.0.2
kiwisolver==1.4.4
matplotlib==3.7.0
msgpack==1.0.4
numpy==1.24.2
packaging==23.0
Pillow==9.4.0
platformdirs==3.0.0
pynvim==0.4.3
pyparsing==3.0.9
python-dateutil==2.8.2
six==1.16.0
sqlparse==0.4.3
virtualenv==20.19.0
